Place,Name,Sex,BirthDate,Age,Country,State,Equipment,Division,BodyweightKg,WeightClassKg,Squat1Kg,Squat2Kg,Squat3Kg,Best3SquatKg,Bench1Kg,Bench2Kg,Bench3Kg,Best3BenchKg,Deadlift1Kg,Deadlift2Kg,Deadlift3Kg,Best3DeadliftKg,TotalKg,Event,Team,Tested
1,Bhuvan Vasudev,M,2000-02-02,23,Canada,ON,Raw,J20-23,74.31,75,190,202.5,207.5,207.5,117.5,125,130,130,247.5,257.5,265,265,602.5,SBD,Free Bird Health Club,Yes
2,Zachary Brown,M,2000-09-03,23,Canada,ON,Raw,J20-23,74.41,75,142.5,150,-162.5,150,85,95,-100,95,177.5,-185,-185,177.5,422.5,SBD,Silverback fitness,Yes
1,Damanpreet Brar,M,2002-12-23,20,Canada,ON,Raw,J20-23,81.96,82.5,162.5,170,177.5,177.5,102.5,110,-117.5,110,205,215,222.5,222.5,510,SBD,Gursewak Singh,Yes
2,Quinn Yakuse-Duffy,M,2002-09-18,20,Canada,ON,Raw,J20-23,76.16,82.5,160,167.5,-177.5,167.5,-120,127.5,135,135,177.5,190,200,200,502.5,SBD,Team Zottl,Yes
1,Nicolas Sanchez Martinez,M,2001-12-13,21,Canada,ON,Raw,J20-23,89.68,90,215,225,235,235,130,137.5,140,140,225,240,-252.5,240,615,SBD,Master Athletic Performance,Yes
2,Youssef Daoud,M,2003-01-03,20,Canada,ON,Raw,J20-23,85.61,90,190,205,-212.5,205,122.5,132.5,-135,132.5,240,-252.5,-260,240,577.5,SBD,,Yes
1,Joe Bulan,M,1982-03-09,41,Canada,ON,Raw,M40-44,73.65,75,175,185,192.5,192.5,112.5,120,-125,120,205,215,230,230,542.5,SBD,,Yes
1,Arvee Reyes,M,1987-08-29,36,Canada,ON,Raw,Open,74.46,75,210,217.5,225,225,125,137.5,145,145,275,-285,285,285,655,SBD,Gym41,Yes
2,Zachary Brown,M,2000-09-03,23,Canada,ON,Raw,Open,74.41,75,142.5,150,-162.5,150,85,95,-100,95,177.5,-185,-185,177.5,422.5,SBD,Silverback fitness,Yes
1,Tyler Munn,M,1992-12-21,30,Canada,ON,Raw,Open,82.04,82.5,215,225,230,230,150,-160,-160,150,200,210,220,220,600,SBD,Project Iron,Yes
2,Brighton Mathuranayagam,M,1998-10-28,24,Canada,ON,Raw,Open,78.03,82.5,175,187.5,195,195,110,120,125,125,215,227.5,240,240,560,SBD,,Yes
3,Joshua Pasquale,M,1998-09-25,24,Canada,ON,Raw,Open,79.13,82.5,182.5,192.5,200,200,122.5,132.5,-137.5,132.5,192.5,202.5,217.5,217.5,550,SBD,Jump Rope Boys,Yes
4,Vithusan Jeya,M,1998-03-15,25,Canada,ON,Raw,Open,82.01,82.5,190,202.5,-215,202.5,105,112.5,117.5,117.5,202.5,217.5,-220,217.5,537.5,SBD,Maximum Training Team,Yes
5,Brad Bellavance,M,1992-07-18,31,Canada,ON,Raw,Open,80.66,82.5,162.5,170,175,175,117.5,122.5,-125,122.5,207.5,215,-220,215,512.5,SBD,,Yes
6,Sam Vilchez,M,1998-12-09,24,Canada,ON,Raw,Open,81.25,82.5,157.5,162.5,172.5,172.5,-112.5,117.5,-122.5,117.5,205,212.5,-220,212.5,502.5,SBD,Jump Rope Boys,Yes
7,Ty Gilbert,M,1999-03-09,24,Canada,ON,Raw,Open,81.52,82.5,-117.5,117.5,125,125,62.5,67.5,-72.5,67.5,147.5,155,167.5,167.5,360,SBD,,Yes
1,Jamie Kernohan,M,1998-10-22,24,Canada,ON,Raw,Open,87.42,90,207.5,215,-227.5,215,125,137.5,-145,137.5,225,237.5,247.5,247.5,600,SBD,Damian Ksenych,Yes
2,Damian Ksenych,M,1998-03-13,25,Canada,ON,Raw,Open,89.42,90,215,220,-225,220,130,137.5,-142.5,137.5,-227.5,235,-240,235,592.5,SBD,LIFT Barbell,Yes
3,Anthony Veltri,M,1996-04-18,27,Canada,ON,Raw,Open,90,90,175,187.5,-197.5,187.5,120,130,140,140,185,207.5,230,230,557.5,SBD,Team Zottl,Yes
1,Arvee Reyes,M,1987-08-29,36,Canada,ON,Raw,S35-39,74.46,75,210,217.5,225,225,125,137.5,145,145,275,-285,285,285,655,SBD,Gym41,Yes
1,Dave Smolen,M,1987-08-22,36,Canada,ON,Raw,S35-39,86.38,90,185,-190,-190,185,120,-127.5,-127.5,120,175,195,-200,195,500,SBD,Apex Barbell Club,Yes
1,Cory Sherratt,M,1978-09-14,45,Canada,ON,Raw,M45-49,77.53,82.5,,,,,117.5,125,130,130,,,,,130,B,Scorrybreach Barbell,Yes
1,Moneka Esa,F,2002-07-19,21,Canada,ON,Raw,J20-23,55.72,56,105,-115,-115,105,52.5,60,-65,60,130,140,150,150,315,SBD,Brad Ogston,Yes
1,Valerie Costales,F,1999-11-15,23,Canada,ON,Raw,J20-23,65.27,67.5,110,117.5,-125,117.5,50,52.5,55,55,137.5,145,-152.5,145,317.5,SBD,,Yes
1,Michelle Briere,F,1982-02-18,41,Canada,ON,Raw,M40-44,65.91,67.5,135,140,-147.5,140,72.5,-77.5,-77.5,72.5,-170,172.5,-182.5,172.5,385,SBD,Paul Oneid - MAP,Yes
1,Ninette Longsworth,F,1968-02-12,55,Canada,ON,Raw,M55-59,51.18,52,92.5,97.5,103,103,52.5,55,-57.5,55,120,-137.5,137.5,137.5,295.5,SBD,Fortis Fitness,Yes
1,Raven Butler,F,1991-02-05,,Canada,ON,Raw,Open,51.23,52,85,90,-92.5,90,47.5,-52.5,-52.5,47.5,117.5,122.5,127.5,127.5,265,SBD,,Yes
1,Shelby Maracle,F,1994-11-07,28,Canada,ON,Raw,Open,53.65,56,77.5,82.5,-90,82.5,42.5,-47.5,-47.5,42.5,95,100,-105,100,225,SBD,,Yes
1,Emily Nesbitt,F,1996-05-24,27,Canada,ON,Raw,Open,58.3,60,125,132.5,-137.5,132.5,75,80,-82.5,80,132.5,142.5,-147.5,142.5,355,SBD,,Yes
2,Andrea Paradis,F,1990-12-22,32,Canada,ON,Raw,Open,59.38,60,100,107.5,-115,107.5,60,65,-67.5,65,140,147.5,157.5,157.5,330,SBD,KYA,Yes
1,Michelle Young,F,1991-03-28,32,Canada,ON,Raw,Open,64.85,67.5,125,135,140,140,60,65,67.5,67.5,147.5,160,170,170,377.5,SBD,Quantum Strength & Fitness,Yes
2,Cristina Abbatangelo,F,1995-08-23,,Canada,ON,Raw,Open,65.81,67.5,122.5,127.5,132.5,132.5,62.5,65,67.5,67.5,165,172.5,-182.5,172.5,372.5,SBD,Dave Maxwell,Yes
3,Barbie Kukla,F,1994-06-13,29,Canada,ON,Raw,Open,66.31,67.5,122.5,130,-137.5,130,77.5,-82.5,82.5,82.5,137.5,147.5,155,155,367.5,SBD,Mike Previdsa,Yes
4,Sabrina Di Zazzo,F,1997-09-17,25,Canada,ON,Raw,Open,66.54,67.5,105,115,-125,115,57.5,62.5,-65,62.5,125,132.5,140,140,317.5,SBD,Torque Barbell,Yes
5,Carly McInnis,F,1998-09-10,25,Canada,ON,Raw,Open,65.9,67.5,92.5,102.5,-117.5,102.5,72.5,80,-82.5,80,110,120,-132.5,120,302.5,SBD,Tom Brannick,Yes
6,Carolyn Borges,F,1993-07-02,30,Canada,ON,Raw,Open,66.7,67.5,82.5,87.5,92.5,92.5,50,-55,55,55,102.5,110,115,115,262.5,SBD,Michael Previdsa,Yes
7,Pawanpreet Kaur,F,1988-11-27,34,Canada,ON,Raw,Open,65.56,67.5,-75,85,92.5,92.5,35,-47.5,-47.5,35,85,95,102.5,102.5,230,SBD,Free Bird Health Club,Yes
1,Kim Liu,F,1986-10-18,36,Canada,ON,Raw,S35-39,55.08,56,100,107.5,115,115,52.5,55,-57.5,55,107.5,115,122.5,122.5,292.5,SBD,Leah from Quantum Gym,Yes
1,Lilian Cheng,F,1987-03-21,36,Canada,ON,Raw,S35-39,58.9,60,87.5,92.5,-97.5,92.5,-42.5,42.5,-45,42.5,92.5,97.5,102.5,102.5,237.5,SBD,,Yes
1,Ashley Whaling,F,1986-05-05,37,Canada,ON,Raw,S35-39,65.5,67.5,97.5,105,112.5,112.5,50,52.5,-55,52.5,142.5,155,160,160,325,SBD,Sarah Rodenhiser,Yes
1,Steve Del Re,M,1982-09-23,40,Canada,ON,Raw,M40-44,95.04,100,180,192.5,200,200,112.5,117.5,-125,117.5,190,210,227.5,227.5,545,SBD,,Yes
DQ,Kris McKillop,M,1978-04-19,,Canada,ON,Raw,M45-49,98.33,100,220,230,-240,230,-145,-145,-145,,-227.5,-230,-232.5,,,SBD,,Yes
1,Gursewak Singh,M,1994-10-07,,Canada,ON,Raw,Open,98.01,100,240,257.5,262.5,262.5,137.5,150,-157.5,150,250,267.5,280,280,692.5,SBD,Free Bird Health Club,Yes
2,Evan Childs,M,1996-04-07,27,Canada,ON,Raw,Open,98.84,100,215,-227.5,235,235,125,135,-142.5,135,247.5,260,-272.5,260,630,SBD,Killian Hamilton,Yes
3,Jolan Taylor,M,1989-12-04,33,Canada,ON,Raw,Open,96.8,100,210,220,227.5,227.5,120,125,-130,125,235,245,250,250,602.5,SBD,,Yes
4,Brodie Blankenship,M,1992-08-07,31,Canada,ON,Raw,Open,95.55,100,165,185,192.5,192.5,117.5,125,132.5,132.5,230,240,252.5,252.5,577.5,SBD,Superior Barbell,Yes
5,James Denny,M,1992-03-14,31,Canada,ON,Raw,Open,98.22,100,210,215,217.5,217.5,107.5,-112.5,-112.5,107.5,235,242.5,-250,242.5,567.5,SBD,All Forms Fitness,Yes
6,Luke Molica,M,1990-04-23,33,Canada,ON,Raw,Open,98.35,100,180,190,202.5,202.5,120,130,-135,130,200,215,227.5,227.5,560,SBD,Chris Fudge,Yes
1,Harry Tibbs,M,1995-06-01,28,Canada,ON,Raw,Open,105.08,110,250,265,-275,265,135,142.5,-150,142.5,282.5,-297.5,-310,282.5,690,SBD,Stuart Locke,Yes
2,Kulwinder Singh,M,1992-09-30,30,Canada,ON,Raw,Open,103.93,110,170,-185,-200,170,130,140,-147.5,140,200,215,225,225,535,SBD,Free Bird Health Club,Yes
1,Mathieu Aubin,M,1993-06-15,30,Canada,ON,Raw,Open,122.4,125,250,-265,265,265,167.5,175,-181.5,175,215,227.5,-232.5,227.5,667.5,SBD,Team Zottl,Yes
1,Adriana Cuabu,F,2000-06-10,23,Canada,ON,Raw,J20-23,99.46,100,125,132.5,137.5,137.5,70,75,-80,75,135,142.5,150,150,362.5,SBD,,Yes
1,Katie Rodas,F,1979-12-19,43,Canada,ON,Raw,M40-44,73.55,75,80,85,92.5,92.5,40,45,-52.5,45,90,97.5,105,105,242.5,SBD,Jonathan Repasch,Yes
1,Stella Harrison,F,1978-07-20,45,Canada,ON,Raw,M45-49,75.4,82.5,85,95,-102.5,95,40,42.5,-47.5,42.5,132.5,140,145,145,282.5,SBD,Dharmender Sahota,Yes
2,Nikki Pavsic,F,1978-01-03,45,Canada,ON,Raw,M45-49,75.33,82.5,72.5,77.5,82.5,82.5,42.5,47.5,-52.5,47.5,112.5,120,130,130,260,SBD,Dharmender Sahota,Yes
1,Ruth Bell,F,1965-08-25,58,Canada,ON,Raw,M55-59,106.73,110,-87.5,97.5,105,105,70,-75,-75,70,112.5,120,130,130,305,SBD,Quantum- Leah G,Yes
1,Sierra-Lynn Moreira,F,1998-07-29,25,Canada,ON,Raw,Open,71.6,75,127.5,-132.5,132.5,132.5,62.5,67.5,-70,67.5,157.5,165,170,170,370,SBD,Scorrybreac Barbell,Yes
2,Crystal Kazanofski,F,1990-02-15,33,Canada,ON,Raw,Open,73.51,75,100,105,110,110,62.5,67.5,70,70,127.5,132.5,-137.5,132.5,312.5,SBD,UNI Training,Yes
3,Samantha Ryckman,F,1996-05-18,27,Canada,ON,Raw,Open,73.78,75,90,92.5,97.5,97.5,42.5,47.5,-50,47.5,112.5,-117.5,120,120,265,SBD,Randii Colwell - SkullHouse,Yes
4,Harmanpreet Kaur Ojla,F,1994-07-10,,Canada,ON,Raw,Open,74.33,75,75,85,90,90,40,47.5,-50,47.5,90,97.5,102.5,102.5,240,SBD,Free Bird Health Club,Yes
1,Jessica Cuabu,F,1997-04-18,26,Canada,ON,Raw,Open,81,82.5,135,140,145,145,57.5,60,-62.5,60,132.5,-140,145,145,350,SBD,,Yes
2,Emily Parker,F,1990-05-26,33,Canada,ON,Raw,Open,80.84,82.5,120,-130,130,130,52.5,-57.5,-62.5,52.5,130,145,-155,145,327.5,SBD,,Yes
1,Nicole Smart,F,1992-11-28,30,Canada,ON,Raw,Open,88.35,90,-125,-130,130,130,62.5,67.5,70,70,140,150,-155,150,350,SBD,LBC,Yes
1,Alyssia Tieri,F,1990-03-17,33,Canada,ON,Raw,Open,94.14,100,107.5,117.5,-122.5,117.5,50,57.5,62.5,62.5,120,132.5,137.5,137.5,317.5,SBD,Team Zottl,Yes
1,Megan DeJong,F,1983-10-20,39,Canada,ON,Raw,S35-39,72.44,75,100,105,110,110,55,-57.5,-57.5,55,132.5,137.5,142.5,142.5,307.5,SBD,Bradley Bellavance,Yes
2,Sara El-Jammal,F,1986-09-04,37,Canada,ON,Raw,S35-39,73.21,75,120,-125,-125,120,55,-57.5,-57.5,55,117.5,122.5,130,130,305,SBD,All Forms Fitness,Yes
1,Bethany Jago,F,1985-09-19,37,Canada,ON,Raw,S35-39,81.08,82.5,80,87.5,92.5,92.5,40,45,-47.5,45,107.5,117.5,122.5,122.5,260,SBD,Randii Colwell,Yes
1,Angela Yakonich,F,1974-09-15,49,Canada,ON,Raw,M45-49,73.27,75,,,,,,,,,115,122.5,-127.5,122.5,122.5,D,Brad Bellavance - Community Family Fitness,Yes
